372524 665188 509
180653 600207 470
678015 989832 525
696990 613315 509
340866 559968 470
732546 473888 509
884612 722116 525
239354 433326 449
970623 277938 525
9517 876533 525
354182 922059 525
229021 200320 386
262758 935674 525
439026 675422 509
863645 246371 525
102870 582688 470
128268 746709 509
110801 88354 354
145529 902616 525
861398 586243 525
111166 430204 449
927554 52528 525
632652 420075 509
598484 540854 452
413950 403901 449
790551 998853 525
117515 770660 509
972854 40453 525
338381 291538 384
755162 390217 509
90694 240382 443
32931 116541 354
724631 418413 509
286525 764824 509
163951 252417 443
288522 967946 525
677654 813335 504
140284 721974 509
316276 678640 509
305728 390917 441
566099 144652 470
359772 340520 441
941 848866 525
335235 31884 443
8800 257689 443
49276 528940 470
412077 145223 449
739910 862799 525
317904 632027 509
318776 487233 449
3799 380300 443
981908 65459 525
707841 113746 509
737576 567750 509
150241 456893 449
787410 860659 525
648252 455582 509
642150 226908 509
5893 813454 509
28236 102759 351
305427 86788 443
558095 983341 525
47908 779474 509
586328 293946 470
769733 159449 509
20551 877226 525
695129 883497 525
681285 821854 504
683970 682772 380
658191 115563 509
323009 39028 443
364201 931563 525
683054 431825 509
417965 516487 470
656516 487367 509
186487 319983 443
982366 681866 525
921179 539365 525
566568 66957 470
68124 106110 351
427468 342014 449
203583 535962 470
89336 784518 509
265429 548264 470
956845 910352 507
824683 945907 525
584044 238651 470
902731 300437 525
18170 580320 470
523818 104993 470
524589 818439 509
945875 8818 525
227978 187964 386
295364 871535 525
952498 518595 525
838366 813584 525
198789 807283 509
377949 247443 441
470603 7384 449
320036 330705 384
115571 282904 443
204452 948809 525
200256 930960 525
147609 805362 509
219401 133123 386
746717 485083 509
395890 339202 441
981879 900683 507
357998 710714 509
22704 665166 509
575481 266661 470
61958 382363 443
884556 85064 525
484321 294181 449
885496 130051 525
416126 844303 525
103475 158132 383
889184 246740 525
938499 743367 525
618832 353358 470
659132 176420 509
379051 84055 443
965881 234179 525
581404 768388 509
681897 294440 509
113010 478474 449
106163 576479 470
154922 627604 509
213823 977403 525
619116 895390 525
203730 120344 383
773231 992053 525
652460 575323 509
787212 420996 509
835672 840845 525
166113 942276 525
718391 503204 509
186237 647735 509
535235 525864 408
767976 281410 509
386964 730195 509
512401 606002 452
206990 472118 449
741758 57819 509
374973 738478 509
732022 646730 504
892483 506572 525
935228 575569 525
572052 968942 525
814464 440894 509
903306 657661 525
11017 496192 449
289311 618951 470
374218 540402 470
332415 488899 449
211484 880942 525
324707 847421 525
977207 563435 525
619602 958969 525
49128 20327 324
654960 402891 509
737142 911035 525
582671 3487 470
120337 119388 305
665086 712562 504
851233 794216 525
125551 439988 449
572711 779793 509
645890 822430 504
623557 642495 509
661794 479053 509
35866 379848 443
968626 675236 525
54405 109651 354
228725 875216 525
743821 951115 525
428744 329241 449
152440 190402 383
457002 533756 470
406343 64013 443
1980 790909 509
441677 787225 509
723243 809734 468
500501 461186 444
425755 576454 470
927444 241818 525
868987 89617 525
195488 362866 443
941006 422091 525
798877 779443 468
881675 332466 525
614406 772975 509
307371 519260 470
937752 749268 525
283165 871473 525
599082 683057 509
445924 85751 449
934916 18912 525
685636 882514 525
626262 878603 525
537616 849987 525
656932 370548 509
680506 237585 509
197251 419990 449
988816 593667 525
245506 410115 449
771973 965783 525
632377 961916 525
230113 180555 386
316034 298554 384
396845 368176 436
481943 753322 509
993622 813867 525
180931 130812 383
163749 970430 525
357696 399019 436
638524 727460 504
481698 174267 449
214476 125845 383
981201 253135 525
549308 951530 525
891299 579969 525
456241 582378 470
240151 428987 449
700295 712674 504
588299 466875 470
847423 673403 525
114477 47308 354
35616 852551 525
340383 524766 470
551039 789960 509
954474 205291 525
436317 45485 449
21142 803415 509
325311 479839 449
27768 785687 509
715390 770990 468
763847 47862 509
411181 173047 449
448685 341448 449
517348 858615 525
448364 880988 525
199959 955337 525
155671 635488 509
316572 620663 470
875892 67365 525
752966 846339 525
70257 841585 525
493718 918336 525
739852 344595 509
